<?xml version="1.0" encoding="UTF-8" standalone="no"?>
<svg
   xmlns:dc="http://purl.org/dc/elements/1.1/"
   xmlns:cc="http://creativecommons.org/ns#"
   xmlns:rdf="http://www.w3.org/1999/02/22-rdf-syntax-ns#"
   xmlns:svg="http://www.w3.org/2000/svg"
   xmlns="http://www.w3.org/2000/svg"
   xmlns:sodipodi="http://sodipodi.sourceforge.net/DTD/sodipodi-0.dtd"
   xmlns:inkscape="http://www.inkscape.org/namespaces/inkscape"
   viewBox="0 0 512 512"
   style="height: 64px; width: 64px;"
   version="1.1"
   id="svg6"
   sodipodi:docname="path-distance.svg"
   inkscape:version="0.92.4 5da689c313, 2019-01-14">
  <metadata
     id="metadata12">
    <rdf:RDF>
      <cc:Work
         rdf:about="">
        <dc:format>image/svg+xml</dc:format>
        <dc:type
           rdf:resource="http://purl.org/dc/dcmitype/StillImage" />
        <dc:title></dc:title>
      </cc:Work>
    </rdf:RDF>
  </metadata>
  <defs
     id="defs10" />
  <sodipodi:namedview
     pagecolor="#ffffff"
     bordercolor="#666666"
     borderopacity="1"
     objecttolerance="10"
     gridtolerance="10"
     guidetolerance="10"
     inkscape:pageopacity="0"
     inkscape:pageshadow="2"
     inkscape:window-width="1918"
     inkscape:window-height="1059"
     id="namedview8"
     showgrid="false"
     inkscape:pagecheckerboard="true"
     inkscape:zoom="1.0579496"
     inkscape:cx="202.18307"
     inkscape:cy="271.40878"
     inkscape:window-x="0"
     inkscape:window-y="19"
     inkscape:window-maximized="0"
     inkscape:current-layer="svg6" />
  <path
     style="fill:#ffffff;fill-opacity:1"
     inkscape:connector-curvature="0"
     id="path2"
     d="m 129.44376,49.571064 c -32.000001,0 -64.000001,24 -64.000001,71.999996 l 64.000001,127.95 64.02,-127.95 c 0,-47.999996 -32,-71.999996 -64.02,-71.999996 z m 0,40 c 17.68092,-0.01105 32.02,14.319076 32.02,31.999996 -0.0276,17.66139 -14.35859,31.96106 -32.02,31.95 -17.65361,2e-5 -31.972417,-14.29642 -32.000001,-31.95 0,-17.67311 14.326891,-31.999996 32.000001,-31.999996 z m 267.0186,148.907876 c -32,0 -64,24 -64,72 l 64,128 64,-128 c 0,-48 -32,-72 -64,-72 z m 0,40 c 17.67311,0 32,14.32689 32,32 0,17.67311 -14.32689,32 -32,32 -17.67311,0 -32,-14.32689 -32,-32 0,-17.67311 14.32689,-32 32,-32 z"
     sodipodi:nodetypes="scccscccccscccssssss" />
  <path
     style="fill:none;stroke:#ffffff;stroke-width:8;stroke-linecap:butt;stroke-linejoin:miter;stroke-miterlimit:4;stroke-dasharray:64,64;stroke-dashoffset:0;stroke-opacity:1"
     d="m 129.44376,249.52106 267.0186,188.95788"
     id="path847"
     inkscape:connector-curvature="0"
     sodipodi:nodetypes="cc" />
</svg>
